Data608 HW1
…
Think a bit on what these summaries mean. Use the space below to add some more relevant non-visual exploratory information you think helps you understand this data:

df_st  <- inc %>% 
group_by(State) %>% summarise(total = n()) %>% 
arrange(desc(total))
df_st

## # A tibble: 52 x 2
##    State total
##    <fct> <int>
##  1 CA      701
##  2 TX      387
##  3 NY      311
##  4 VA      283
##  5 FL      282
##  6 IL      273
##  7 GA      212
##  8 OH      186
##  9 MA      182
## 10 PA      164
## # ... with 42 more rows
…
